Name,Sex,Event,Equipment,Division,BodyweightKg,WeightClassKg,Squat1Kg,Squat2Kg,Squat3Kg,Best3SquatKg,Bench1Kg,Bench2Kg,Bench3Kg,Best3BenchKg,Deadlift1Kg,Deadlift2Kg,Deadlift3Kg,Best3DeadliftKg,TotalKg,Place,Age,BirthDate,State
Ben Dandy,M,SBD,Raw,M-C-Open,73,74,160,170,175,175,122.5,130,132.5,132.5,180,192.5,200,200,507.5,3,,,NW
Callum McGovern,M,SBD,Raw,M-C-Open,58.8,59,95,100,107.5,107.5,62.5,65,70,70,120,130,140,140,317.5,2,16,,NW
Chris Eaton,M,SBD,Raw,M-C-Open,70.3,74,125,132.5,-140,132.5,110,117.5,122.5,122.5,180,192.5,-200,192.5,447.5,5,,,NW
Daniel Whittall,M,SBD,Raw,M-C-Open,74,74,165,-175,-175,165,102.5,-107.5,-107.5,102.5,195,205,-210,205,472.5,4,,,NW
Henry Chay,M,SBD,Raw,M-C-Open,63.5,66,145,155,-160,155,80,85,-87.5,85,190,200,205,205,445,1,,,NW
Josh Wahlers,M,SBD,Raw,M-C-Open,72.7,74,170,180,-182.5,180,100,110,-115,110,240,250,260,260,550,1,,,NW
Martyn Wood,M,SBD,Raw,M-C-Open,73,74,140,-150,-150,140,90,-97.5,-97.5,90,150,160,175,175,405,6,,,NW
Michael Roskell,M,SBD,Raw,M-C-Open,73.7,74,165,175,185,185,100,105,110,110,185,205,217.5,217.5,512.5,2,,,NW
Richard Gould,M,SBD,Raw,M-C-Open,58.4,59,90,95,100,100,60,-65,65,65,125,132.5,135,135,300,3,,,NW
Shariq Haidery,M,SBD,Raw,M-C-Open,70.9,74,-135,135,140,140,-70,70,-75,70,-170,170,185,185,395,7,,,NW
Yiannis Verenakis,M,SBD,Raw,M-C-Open,58.9,59,135,142.5,147.5,147.5,95,102.5,105.5,105.5,140,160,-180,160,413,1,,,NW
Adam Callaway,M,SBD,Raw,M-C-Open,92.2,93,157.5,167.5,177.5,177.5,75,82.5,-90,82.5,190,208,212.5,212.5,472.5,8,,,NW
Adrian Cook,M,SBD,Raw,M-C-Open,81.2,83,190,200,207.5,207.5,130,140,-145,140,215,227.5,-235,227.5,575,3,,,NW
Alex Tellam,M,SBD,Raw,M-C-Open,86.6,93,182.5,190,200,200,115,-120,120,120,230,240,245,245,565,4,,,NW
Andrew Fleming,M,SBD,Raw,M-C-Open,79.5,83,130,140,147.5,147.5,90,95,100,100,160,-170,-170,160,407.5,9,,,NW
Andy Foster,M,B,Raw,M-C-Open,141,120+,,,,,185,-192.5,,185,,,,,185,1,,,NW
Andy Rigby,M,B,Raw,M-C-Open,92.8,93,,,,,180,190,195,195,,,,,195,1,,,NW
Benjamin Jenkins,M,SBD,Raw,M-C-Open,89.6,93,195,212.5,225,225,120,130,140,140,230,242.5,255,255,620,2,,,NW
Bob Evans #2,M,SBD,Raw,M-C-Open,118.6,120,200,220,235,235,130,140,147.5,147.5,-220,242.5,250,250,632.5,3,,,NW
Charles Jupiter,M,SBD,Raw,M-C-Open,79.3,83,170,180,190,190,102.5,-107.5,-107.5,102.5,210,220,-230,220,512.5,5,,,NW
Chris Hubel,M,SBD,Raw,M-C-Open,131.4,120+,210,222.5,232.5,232.5,132.5,140,145,145,270,285,300,300,677.5,4,,,NW
Chris Jones #3,M,SBD,Raw,M-C-Open,113.1,120,200,210,220,220,140,145,150,150,180,200,-220,200,570,8,,,NW
Chris Peters,M,SBD,Raw,M-C-Open,111.3,120,190,-205,-210,190,140,-150,-150,140,225,245,-247.5,245,575,7,,,NW
Chris Horton,M,SBD,Raw,M-C-Open,103.8,105,200,215,220,220,150,160,-165,160,215,235,245,245,625,5,,,NW
David Charnock,M,SBD,Raw,M-C-Open,117.3,120,210,225,240,240,125,132.5,-140,132.5,220,245,265,265,637.5,2,,,NW
David Clifford,M,SBD,Raw,M-C-Open,82.5,83,190,200,207.5,207.5,120,125,130.5,130.5,225,232.5,-237.5,232.5,570.5,4,,,NW
David Heath,M,SBD,Raw,M-C-Open,82.4,83,220,230,-240,230,125,130,-135,130,240,252.5,257.5,257.5,617.5,1,,,NW
Edward Obakhavbaye-Hanson,M,SBD,Raw,M-C-Open,86.3,93,237.5,247.5,,247.5,165,-170.5,-170.5,165,290,-310.5,,290,702.5,1,,,NW
Ewan Cunliffe,M,SBD,Raw,M-C-Open,112.1,120,230,240,250,250,175,185,-190,185,240,260,265,265,700,1,,,NW
Frazer Pennington,M,SBD,Raw,M-C-Open,126.2,120+,275,285,300,300,155,165,175,175,250,262.5,275,275,750,3,,,NW
Ian Shaw,M,SBD,Raw,M-C-Open,88,93,210,225,230,230,120,125,127.5,127.5,260,-290,,260,617.5,3,,,NW
James Crosbie,M,SBD,Raw,M-C-Open,102.6,105,205,-215,-215,205,137.5,145,-152.5,145,265,-277.5,-280,265,615,6,,,NW
James Hannon,M,SBD,Raw,M-C-Open,104.2,105,200,215,220,220,135,145,-150,145,245,265,-272.5,265,630,4,,,NW
Jason Holmes #2,M,SBD,Raw,M-C-Open,82.8,83,177.5,185,190,190,110,115,-120,115,195,205,-215,205,510,6,,,NW
Joe Byrne,M,SBD,Raw,M-C-Open,92.6,93,185,195,-205,195,130,-140,-140,130,205,215,-220,215,540,6,,,NW
Joe Robertson,M,SBD,Raw,M-C-Open,87.5,93,-170,180,190,190,112.5,117.5,-122.5,117.5,190,200,205,205,512.5,7,,,NW
Jon Wilkinson,M,SBD,Raw,M-C-Open,91.6,93,175,182.5,190,190,-115,122.5,127.5,127.5,210,225,-240,225,542.5,5,,,NW
Jordan McLaughlin,M,SBD,Raw,M-C-Open,143.2,120+,300,330,340,340,210,220,227.5,227.5,300,312.5,-320,312.5,880,2,,,NW
Josh Hayford,M,SBD,Raw,M-C-Open,115.3,120,195,205,212.5,212.5,-115,115,125,125,240,252.5,265,265,602.5,6,,,NW
Marvelous James,M,SBD,Raw,M-C-Open,103.1,105,212.5,230,240,240,140,150,-152.5,150,262.5,277.5,285,285,675,2,,,NW
Marvin Turner,M,SBD,Raw,M-C-Open,103.4,105,225,232.5,242.5,242.5,172.5,180,185,185,290,305,-317.5,305,732.5,1,,,NW
Neil Fisher,M,B,Raw,M-C-Open,82,83,,,,,140,-145,145,145,,,,,145,1,,,NW
Paul Constantine,M,B,Single-ply,M-E-Open,92.4,93,,,,,165,170,-175,170,,,,,170,1,,1975-03-24,NW
Paul Jackson #1,M,SBD,Raw,M-C-Open,103.9,105,210,225,230,230,150,155,-160,155,250,270,-285,270,655,3,,,NW
Paul Reay,M,SBD,Raw,M-C-Open,92.3,93,135,140,-145,140,70,72.5,-75,72.5,155,160,170,170,382.5,9,,,NW
Paul Williamson,M,SBD,Raw,M-C-Open,145.9,120+,200,215,225,225,115,125,127.5,127.5,225,242.5,-250,242.5,595,5,,,NW
Rob Ward-Dutton,M,SBD,Raw,M-C-Open,79.3,83,157.5,165,172.5,172.5,97.5,105,-110,105,195,210,-217.5,210,487.5,8,,,NW
Sam Emmitt,M,SBD,Raw,M-C-Open,81.3,83,170,185,-190,185,100,110,-115,110,200,-210,,200,495,7,,,NW
Tamás Kurcz,M,SBD,Raw,M-C-Open,114.2,120,210,220,225,225,-165,-170,-170,,265,275,280,280,,DQ,,,NW
Tony Cliffe,M,SBD,Raw,M-C-Open,124,120+,300,320,340,340,220,-235,-235,220,320,340,355,355,915,1,,,NW
Tristan Kennedy,M,SBD,Raw,M-C-Open,82,83,192.5,200,205,205,-105,105,-110,105,255,267.5,-275,267.5,577.5,2,,,NW
Will Freeman Dunn,M,SBD,Raw,M-C-Open,119.5,120,205,217.5,227.5,227.5,162.5,170,-175,170,207.5,-222.5,222.5,222.5,620,5,,,NW
Yiannis Verenakis,M,SBD,Raw,M-C-Open,106,120,220,230,235,235,150,157.5,-160,157.5,220,227.5,232.5,232.5,625,4,,,NW
Adele Fothersgill,F,SBD,Raw,F-C-Open,81.3,84,112.5,122.5,-127.5,122.5,62.5,-67.5,-67.5,62.5,120,130,-135,130,315,2,,,NW
Alison Parkinson,F,B,Raw,F-C-Open,61.5,63,,,,,37.5,-40,40,40,,,,,40,1,,,NW
Beckie Hebson,F,SBD,Raw,F-C-G,52.4,57,95,102.5,107.5,107.5,55,-60,-60,55,125,130,-137.5,130,292.5,G,,,NW
Bobbie Butters,F,SBD,Raw,F-C-Open,62.5,63,140,147.5,155,155,80,85,90,90,150,,,150,395,1,,,NW
Charlotte Doughton,F,SBD,Raw,F-C-G,54,57,100,110,-112.5,110,-55,60,-62.5,60,120,125,130,130,300,G,,,NW
Clare Patterson,F,SBD,Raw,F-C-Open,70.7,72,-135,135,-142.5,135,95.5,97.5,,97.5,130,135,140,140,372.5,2,,,NW
Danielle Firth,F,SBD,Raw,F-C-Open,50.2,52,95,100,105,105,-50,52.5,55,55,125,130,135,135,295,1,,,NW
Elfie Higson,F,SBD,Raw,F-C-G,75.6,84,142.5,-152.5,-152.5,142.5,65,70,72.5,72.5,170,182.5,-190,182.5,397.5,G,,,NW
Emma Sullivan #2,F,SBD,Raw,F-C-Open,81.2,84,135,142.5,147.5,147.5,77.5,82.5,-85,82.5,155,165,-175,165,395,1,,,NW
Jazmine Franks,F,SBD,Raw,F-C-Open,52,52,-100,105,-110,105,-62.5,-62.5,-62.5,,115,120,,120,,DQ,,,NW
Jo Kelly,F,SBD,Raw,F-C-Open,62.9,63,100,-105,105,105,70,72.5,-75,72.5,115,122.5,130,130,307.5,2,,,NW
Kate Jackson,F,SBD,Raw,F-C-Open,76.4,84,95,-102.5,-107.5,95,-45,45,50,50,110,120,130,130,275,5,,,NW
Laura Battersby,F,SBD,Raw,F-C-Open,67.3,72,82.5,85,87.5,87.5,-50,52.5,-55,52.5,125,-130,-130,125,265,6,,,NW
Lindsey Woodcock,F,SBD,Raw,F-C-Open,80.5,84,90,100,-102.5,100,60,62.5,65,65,130,140,-145,140,305,4,,,NW
Lucy Jackson,F,SBD,Raw,F-C-Open,104,84+,140,147.5,155,155,70,75,-77.5,75,160,172.5,182.5,182.5,412.5,1,,,NW
Lynzi Shepherd,F,SBD,Raw,F-C-Open,67.2,72,-115,115,125,125,-57.5,-57.5,-57.5,,-125,,,,,DQ,,,NW
Mariella Fisher,F,SBD,Raw,F-C-Open,66,72,120,132.5,143,143,75,80,-81,80,155,167.5,-183,167.5,390.5,1,,,NW
Megan Blunstone,F,SBD,Raw,F-C-Open,70,72,97.5,107.5,-112.5,107.5,52.5,57.5,-60,57.5,120,-130,-130,120,285,5,,,NW
Natalie Banks,F,SBD,Raw,F-C-Open,51.3,52,90,-95,-95,90,57.5,-60,-60,57.5,137.5,-140,140,140,287.5,2,,,NW
Sarah Pearson #2,F,SBD,Raw,F-C-Open,60.1,63,100,105,110,110,55,60,-62.5,60,120,125,130,130,300,3,,,NW
Sophie Gibbs,F,SBD,Raw,F-C-Open,68.2,72,125,135,140,140,-55,57.5,-62.5,57.5,142.5,150,155,155,352.5,3,,,NW
Steevi Pugh,F,SBD,Raw,F-C-Open,94.8,84+,140,147.5,152.5,152.5,62.5,-67.5,67.5,67.5,140,147.5,-152.5,147.5,367.5,2,,,NW
Tania Robins,F,SBD,Raw,F-C-Open,45.6,47,-77.5,82.5,87.5,87.5,-40,40,-47.5,40,112.5,-126,-126,112.5,240,1,,,NW
Victoria Eldridge,F,SBD,Raw,F-C-Open,80.9,84,115,122.5,127.5,127.5,55,-60,60,60,110,120,125,125,312.5,3,,,NW
Victoria Savage,F,SBD,Raw,F-C-Open,65.6,72,102.5,110,115.5,115.5,47.5,52.5,55,55,115,125,130,130,300.5,4,,,NW
