Name,Sex,Division,Age,WeightClassKg,School,Event,Best3SquatKg,Best3BenchKg,Best3DeadliftKg,TotalKg,Equipment,Place
Shane Lutrell,M,Frosh/Soph,15,52,Ridgeview,SBD,72.57,56.7,88.45,217.72,Single-ply,1
Jacob Salazar,M,Frosh/Soph,15,52,Ridgeview,SBD,52.16,45.36,90.72,188.24,Single-ply,2
Shane Moore,M,Frosh/Soph,15,56,Centennial,SBD,92.99,65.77,102.06,260.82,Single-ply,1
Ryan Lay,M,Frosh/Soph,15,60,Stockdale,SBD,127.01,90.72,163.29,381.02,Single-ply,1
Christian Reyes,M,Frosh/Soph,15,60,Golden Valley,SBD,108.86,86.18,120.2,315.25,Single-ply,2
Eric Rivera,M,Frosh/Soph,15,60,Highland,B,,79.38,,79.38,Single-ply,3
Brian Morris,M,Frosh/Soph,15,67.5,Golden Valley,SBD,138.35,104.33,174.63,417.3,Single-ply,1
Gene Blair,M,Frosh/Soph,15,67.5,Ridgeview,SBD,142.88,74.84,179.17,396.89,Single-ply,2
Tyler Hernandez,M,Frosh/Soph,15,67.5,Stockdale,SBD,133.81,88.45,147.42,369.68,Single-ply,3
Bruce Escalante,M,Frosh/Soph,15,67.5,Liberty,SBD,124.74,88.45,142.88,356.07,Single-ply,4
Chris Neal,M,Frosh/Soph,15,67.5,Liberty,SBD,115.67,79.38,156.49,351.53,Single-ply,5
Eddie Rodriguez,M,Frosh/Soph,15,67.5,Highland,SBD,122.47,79.38,127.01,328.85,Single-ply,6
Fabian Garcia,M,Frosh/Soph,15,67.5,Golden Valley,SBD,102.06,92.99,129.27,324.32,Single-ply,7
Josh Nistor,M,Frosh/Soph,15,67.5,Liberty,SBD,111.13,74.84,136.08,322.05,Single-ply,8
Miguel Corral,M,Frosh/Soph,15,67.5,Golden Valley,SBD,106.59,72.57,133.81,312.98,Single-ply,9
Greg Gounder,M,Frosh/Soph,15,67.5,Liberty,SBD,92.99,79.38,124.74,297.1,Single-ply,10
Hector Acevedo,M,Frosh/Soph,15,67.5,Golden Valley,SBD,88.45,72.57,102.06,263.08,Single-ply,11
Steven Cavazos,M,Frosh/Soph,15,67.5,Centennial,SBD,83.91,61.23,115.67,260.82,Single-ply,12
Ryan Kirschemann,M,Frosh/Soph,15,67.5,Liberty,BD,,79.38,142.88,222.26,Single-ply,13
Gonzalo Pineiro,M,Frosh/Soph,15,67.5,Stockdale,SBD,61.23,43.09,113.4,217.72,Single-ply,14
Ren Floyd,M,Frosh/Soph,15,67.5,Stockdale,B,,79.38,,79.38,Single-ply,15
David Calderon,M,Frosh/Soph,15,67.5,Highland,S,61.23,,,61.23,Single-ply,16
Moses Carbell,M,Frosh/Soph,15,75,Stockdale,SBD,142.88,115.67,170.1,428.64,Single-ply,1
Caleb Fink,M,Frosh/Soph,15,75,Kingsburg,SBD,142.88,83.91,174.63,401.43,Single-ply,2
Billy Santillan,M,Frosh/Soph,15,75,Liberty,SBD,142.88,88.45,165.56,396.89,Single-ply,3
Adrian Carando,M,Frosh/Soph,15,75,Centennial,SBD,120.2,106.59,161.03,387.82,Single-ply,4
Eusebio Torres,M,Frosh/Soph,15,75,Golden Valley,SBD,102.06,95.25,161.03,358.34,Single-ply,5
Alex Harrington,M,Frosh/Soph,15,75,Liberty,SBD,111.13,88.45,147.42,347,Single-ply,6
Seth Schilhabel,M,Frosh/Soph,15,75,Ridgeview,SBD,136.08,68.04,124.74,328.85,Single-ply,7
James Bell,M,Frosh/Soph,15,75,Liberty,SBD,102.06,74.84,142.88,319.78,Single-ply,8
Cole Sarver,M,Frosh/Soph,15,75,Liberty,SBD,90.72,70.31,154.22,315.25,Single-ply,9
Fernando Gutierrez,M,Frosh/Soph,15,75,South,SBD,102.06,83.91,111.13,297.1,Single-ply,10
Joseph Olivas,M,Frosh/Soph,15,75,Stockdale,SBD,79.38,63.5,142.88,285.76,Single-ply,11
Isreal Gonzalez,M,Frosh/Soph,15,75,Stockdale,SBD,74.84,68.04,113.4,256.28,Single-ply,12
Andre Ruiz,M,Frosh/Soph,15,75,East,SBD,79.38,56.7,79.38,215.46,Single-ply,13
Daniel Hernandez,M,Frosh/Soph,15,75,Golden Valley,BD,,58.97,92.99,151.95,Single-ply,14
Miguel Ramirez,M,Frosh/Soph,15,75,Highland,BD,,27.22,61.23,88.45,Single-ply,15
Eric McBride,M,Frosh/Soph,15,82.5,Stockdale,SBD,133.81,97.52,165.56,396.89,Single-ply,1
Eric Celedon,M,Frosh/Soph,15,82.5,Stockdale,SBD,133.81,111.13,151.95,396.89,Single-ply,2
Antajuan Hunt,M,Frosh/Soph,15,82.5,Liberty,SBD,142.88,92.99,151.95,387.82,Single-ply,3
Terence Bluford,M,Frosh/Soph,15,82.5,Corcoran,SBD,124.74,102.06,151.95,378.75,Single-ply,4
Corwin Sheahan,M,Frosh/Soph,15,82.5,Liberty,SBD,138.35,77.11,161.03,376.48,Single-ply,5
Brandon Branch,M,Frosh/Soph,15,82.5,Centennial,SBD,102.06,102.06,142.88,347,Single-ply,6
Chris Luevano,M,Frosh/Soph,15,82.5,Highland,SBD,113.4,74.84,149.69,337.93,Single-ply,7
Ryean Johnson,M,Frosh/Soph,15,82.5,Golden Valley,SBD,102.06,83.91,122.47,308.44,Single-ply,8
Travis Holder,M,Frosh/Soph,15,90,Liberty,SBD,195.04,115.67,183.7,494.42,Single-ply,1
Derrick Kernene,M,Frosh/Soph,15,90,Ridgeview,SBD,179.17,102.06,183.7,464.93,Single-ply,2
Anthony Vasquez,M,Frosh/Soph,15,90,Liberty,SBD,165.56,124.74,165.56,455.86,Single-ply,3
Matt Akers,M,Frosh/Soph,15,90,Liberty,SBD,142.88,115.67,183.7,442.25,Single-ply,4
Patrick Guerrero,M,Frosh/Soph,15,90,Liberty,SBD,151.95,120.2,165.56,437.72,Single-ply,5
Mark Renteria,M,Frosh/Soph,15,90,Highland,SBD,142.88,102.06,183.7,428.64,Single-ply,6
Angelo Ornales,M,Frosh/Soph,15,90,Liberty,SBD,136.08,111.13,167.83,415.04,Single-ply,7
Mike Delgado,M,Frosh/Soph,15,90,Kingsburg,SBD,138.35,92.99,142.88,374.21,Single-ply,8
Ryan Corgiat,M,Frosh/Soph,15,90,Ridgeview,SBD,142.88,68.04,151.95,362.87,Single-ply,9
Andy Woods,M,Frosh/Soph,15,90,East,SBD,108.86,79.38,142.88,331.12,Single-ply,10
Jesse Williams,M,Frosh/Soph,15,90,Liberty,SBD,124.74,77.11,113.4,315.25,Single-ply,11
Oseas Gonzalez,M,Frosh/Soph,15,90,Highland,SBD,70.31,45.36,68.04,183.7,Single-ply,12
Chris Johns,M,Frosh/Soph,15,90,Highland,SB,83.91,61.23,,145.15,Single-ply,13
Erik Chavez,M,Frosh/Soph,15,100,Highland,SBD,158.76,136.08,210.92,505.76,Single-ply,1
Cody Blackburn,M,Frosh/Soph,15,100,Ridgeview,SBD,201.85,99.79,197.31,498.95,Single-ply,2
Dylan Pendley,M,Frosh/Soph,15,100,Liberty,SBD,183.7,102.06,174.63,460.4,Single-ply,3
Alfredo Bayaca,M,Frosh/Soph,15,100,Ridgeview,SBD,183.7,92.99,161.03,437.72,Single-ply,4
James Pounds,M,Frosh/Soph,15,100,Stockdale,SBD,142.88,102.06,170.1,415.04,Single-ply,5
James Funk,M,Frosh/Soph,15,100,Bak Christian,SBD,149.69,108.86,151.95,410.5,Single-ply,6
Samuel Reynoso,M,Frosh/Soph,15,100,Highland,SBD,131.54,90.72,163.29,385.55,Single-ply,7
Sean Santillan,M,Frosh/Soph,15,100,Liberty,SBD,142.88,90.72,149.69,383.29,Single-ply,8
Corey Sliter,M,Frosh/Soph,15,100,Liberty,SBD,142.88,88.45,149.69,381.02,Single-ply,9
Brandon Benavides,M,Frosh/Soph,15,100,Stockdale,SBD,113.4,90.72,147.42,351.53,Single-ply,10
Aaron Burdick,M,Frosh/Soph,15,100,East,SBD,102.06,83.91,142.88,328.85,Single-ply,11
Doug Barrier,M,Frosh/Soph,15,100,Liberty,SD,102.06,,133.81,235.87,Single-ply,12
Matt Madrid,M,Frosh/Soph,15,110,Corcoran,SBD,154.22,106.59,183.7,444.52,Single-ply,1
Casey Sorrell,M,Frosh/Soph,15,110,Liberty,SBD,136.08,102.06,142.88,381.02,Single-ply,2
Roman Robinson,M,Frosh/Soph,15,110,South,SBD,142.88,83.91,154.22,381.02,Single-ply,3
Jose Dominguez,M,Frosh/Soph,15,110,Highland,SBD,124.74,79.38,163.29,367.41,Single-ply,4
Terrell Moya,M,Frosh/Soph,15,110,South,SBD,124.74,102.06,136.08,362.87,Single-ply,5
Jacob Fugate,M,Frosh/Soph,15,110,Corcoran,SBD,106.59,106.59,142.88,356.07,Single-ply,6
Sam Thy,M,Frosh/Soph,15,110,South,SBD,113.4,97.52,142.88,353.8,Single-ply,7
Jarod Sizemore,M,Frosh/Soph,15,110,Highland,SD,133.81,,183.7,317.51,Single-ply,8
Richard Raygoza,M,Frosh/Soph,15,110,Ridgeview,SB,151.95,102.06,,254.01,Single-ply,9
Jordan Austin,M,Frosh/Soph,15,110,Highland,BD,,65.77,120.2,185.97,Single-ply,10
Kevin Nodolf,M,Frosh/Soph,15,125,CLC,SBD,197.31,151.95,170.1,519.36,Single-ply,1
Vernell Brothers,M,Frosh/Soph,15,125,Stockdale,SBD,190.51,111.13,167.83,469.47,Single-ply,2
Nathan Silva,M,Frosh/Soph,15,125,Kingsburg,SBD,174.63,102.06,183.7,460.4,Single-ply,3
Anthony Marmolejo,M,Frosh/Soph,15,125,East,SBD,142.88,124.74,185.97,453.59,Single-ply,4
Rigoberto Salazar,M,Frosh/Soph,15,125,East,SBD,133.81,92.99,185.97,412.77,Single-ply,5
Garrett Galanski,M,Frosh/Soph,15,125,Ridgeview,SBD,102.06,88.45,129.27,319.78,Single-ply,6
Ignacio Alvarado,M,Frosh/Soph,15,125,Highland,SBD,70.31,74.84,104.33,249.48,Single-ply,7
Austin Thomas,M,Frosh/Soph,15,125,Garces,SB,154.22,88.45,,242.67,Single-ply,8
Sam Gonzalez,M,Frosh/Soph,15,125,Stockdale,D,,,158.76,158.76,Single-ply,9
Steven Monsibias,M,Frosh/Soph,15,125,Highland,SB,61.23,83.91,,145.15,Single-ply,10
Mark Folweiler,M,Frosh/Soph,15,125+,Liberty,SBD,213.19,92.99,183.7,489.88,Single-ply,1
James Alfred,M,Frosh/Soph,15,125+,Golden Valley,SBD,165.56,102.06,142.88,410.5,Single-ply,2
Chance Lunstrom,M,Frosh/Soph,15,125+,Ridgeview,SBD,140.61,72.57,176.9,390.09,Single-ply,3
Michael Hensley,M,Frosh/Soph,15,125+,Highland,BD,,54.43,61.23,115.67,Single-ply,4
Jeff Juangco,M,Junior/Senior,17,56,Stockdale,SBD,120.2,88.45,156.49,365.14,Single-ply,1
Johnny Sy,M,Junior/Senior,17,56,Golden Valley,SBD,115.67,86.18,145.15,347,Single-ply,2
Javier Roque,M,Junior/Senior,17,60,Liberty,SBD,92.99,70.31,124.74,288.03,Single-ply,1
Jeff Jones,M,Junior/Senior,17,67.5,Stockdale,SBD,136.08,136.08,192.78,464.93,Single-ply,1
Jeff McDonald,M,Junior/Senior,17,67.5,East,SBD,165.56,97.52,185.97,449.06,Single-ply,2
Charles Bagsby,M,Junior/Senior,17,67.5,Golden Valley,SBD,124.74,92.99,170.1,387.82,Single-ply,3
Gabe Rodriguez,M,Junior/Senior,17,67.5,Liberty,SBD,145.15,90.72,149.69,385.55,Single-ply,4
Juan Garcia #23,M,Junior/Senior,17,67.5,Golden Valley,SBD,111.13,97.52,151.95,360.61,Single-ply,5
Jose Garcia #24,M,Junior/Senior,17,67.5,Liberty,BD,,74.84,133.81,208.65,Single-ply,6
Anthony Padilla,M,Junior/Senior,17,67.5,East,BD,,61.23,102.06,163.29,Single-ply,7
Kail Rogers,M,Junior/Senior,17,75,Liberty,SBD,142.88,133.81,190.51,467.2,Single-ply,1
Timothy Armstrong,M,Junior/Senior,17,75,Stockdale,SBD,165.56,115.67,165.56,446.79,Single-ply,2
Ray Martinez,M,Junior/Senior,17,75,Golden Valley,SBD,142.88,102.06,172.37,417.3,Single-ply,3
Andrew Brown #4,M,Junior/Senior,17,75,Golden Valley,SBD,142.88,102.06,158.76,403.7,Single-ply,4
Sean Faulkner,M,Junior/Senior,17,75,Kingsburg,SBD,136.08,79.38,156.49,371.95,Single-ply,5
Edwin Rosas,M,Junior/Senior,17,75,Highland,SBD,124.74,88.45,156.49,369.68,Single-ply,6
Andre Hayes,M,Junior/Senior,17,75,East,BD,,124.74,208.65,333.39,Single-ply,7
Jerry Howard,M,Junior/Senior,17,75,South,SBD,102.06,83.91,145.15,331.12,Single-ply,8
Jeremy Ramirez,M,Junior/Senior,17,82.5,Stockdale,SBD,183.7,124.74,201.85,510.29,Single-ply,1
Mike Ultreras,M,Junior/Senior,17,82.5,Golden Valley,SBD,174.63,124.74,183.7,483.08,Single-ply,2
Vicente Gomez,M,Junior/Senior,17,82.5,Corcoran,SBD,174.63,111.13,192.78,478.54,Single-ply,3
James Brown,M,Junior/Senior,17,82.5,West,SBD,165.56,102.06,197.31,464.93,Single-ply,4
Joel Velasquez,M,Junior/Senior,17,82.5,South,SBD,158.76,115.67,183.7,458.13,Single-ply,5
Derek King,M,Junior/Senior,17,82.5,Stockdale,SBD,151.95,111.13,174.63,437.72,Single-ply,6
Ray Allen,M,Junior/Senior,17,82.5,Golden Valley,SBD,145.15,77.11,167.83,390.09,Single-ply,7
Edward Webber,M,Junior/Senior,17,82.5,Stockdale,SBD,129.27,92.99,167.83,390.09,Single-ply,8
Bobby Campos,M,Junior/Senior,17,82.5,East,SBD,115.67,104.33,136.08,356.07,Single-ply,9
Demirus Perry,M,Junior/Senior,17,82.5,South,SBD,102.06,97.52,145.15,344.73,Single-ply,10
Nathan Reddell,M,Junior/Senior,17,82.5,Highland,SBD,111.13,88.45,142.88,342.46,Single-ply,11
Josue Gonzalez #3,M,Junior/Senior,17,82.5,Corcoran,SD,133.81,,142.88,276.69,Single-ply,12
Tyler Kramer,M,Junior/Senior,17,82.5,Liberty,BD,,88.45,149.69,238.14,Single-ply,13
Kenny Shanahan,M,Junior/Senior,17,90,Stockdale,SBD,231.33,165.56,229.06,625.96,Single-ply,1
Drew Ekizian,M,Junior/Senior,17,90,Kingsburg,SBD,174.63,111.13,197.31,483.08,Single-ply,2
Chris Jones #1,M,Junior/Senior,17,90,West,SBD,165.56,120.2,197.31,483.08,Single-ply,3
Carlos Hernandez #3,M,Junior/Senior,17,90,Stockdale,SBD,165.56,127.01,174.63,467.2,Single-ply,4
Anthony Kilgore,M,Junior/Senior,17,90,West,SBD,151.95,102.06,192.78,446.79,Single-ply,5
Dustin Layshot,M,Junior/Senior,17,90,Liberty,SD,183.7,,210.92,394.63,Single-ply,6
Austin Burgess,M,Junior/Senior,17,90,Highland,SBD,142.88,74.84,156.49,374.21,Single-ply,7
Daryl Carlin,M,Junior/Senior,17,90,Stockdale,BD,,140.61,192.78,333.39,Single-ply,8
Troy Webber,M,Junior/Senior,17,90,Stockdale,BD,,136.08,179.17,315.25,Single-ply,9
Adrian Sandoval,M,Junior/Senior,17,90,East,SB,165.56,111.13,,276.69,Single-ply,10
Austin Sneed,M,Junior/Senior,17,100,Centennial,SBD,235.87,136.08,233.6,605.55,Single-ply,1
Joel Paredes,M,Junior/Senior,17,100,Pioneer,SBD,142.88,158.76,249.48,551.11,Single-ply,2
Nick Harrington,M,Junior/Senior,17,100,Liberty,SBD,183.7,124.74,197.31,505.76,Single-ply,3
Joe Peffer,M,Junior/Senior,17,100,Stockdale,SBD,188.24,149.69,165.56,503.49,Single-ply,4
Michael Smith #13,M,Junior/Senior,17,100,East,SBD,170.1,120.2,192.78,483.08,Single-ply,5
Chase Craft,M,Junior/Senior,17,100,Bak Christian,SBD,161.03,102.06,199.58,462.66,Single-ply,6
Juan Zamora,M,Junior/Senior,17,100,West,SBD,165.56,106.59,190.51,462.66,Single-ply,7
David Cox,M,Junior/Senior,17,100,Liberty,SBD,161.03,115.67,183.7,460.4,Single-ply,8
Joey Aguilar,M,Junior/Senior,17,100,Kingsburg,SBD,156.49,111.13,167.83,435.45,Single-ply,9
Kevin Bush,M,Junior/Senior,17,100,South,SBD,124.74,104.33,142.88,371.95,Single-ply,10
Justin Powell,M,Junior/Senior,17,100,Highland,SBD,92.99,83.91,133.81,310.71,Single-ply,11
John Gombos,M,Junior/Senior,17,100,Bak Christian,SB,145.15,115.67,,260.82,Single-ply,12
Ryan Skidmore,M,Junior/Senior,17,100,East,S,142.88,,,142.88,Single-ply,13
Trevor Goldberg,M,Junior/Senior,17,110,Liberty,SBD,244.94,161.03,217.72,623.69,Single-ply,1
Brian McConnell,M,Junior/Senior,17,110,Stockdale,SBD,174.63,161.03,183.7,519.36,Single-ply,2
Mitchell Crow,M,Junior/Senior,17,110,Liberty,SBD,165.56,138.35,197.31,501.22,Single-ply,3
Vladimir Wade,M,Junior/Senior,17,110,Ridgeview,SBD,165.56,127.01,172.37,464.93,Single-ply,4
Will Sutton,M,Junior/Senior,17,110,Liberty,SBD,151.95,111.13,197.31,460.4,Single-ply,5
Matt Blakemore,M,Junior/Senior,17,110,Liberty,SD,206.38,,183.7,390.09,Single-ply,6
Steven Ramirez,M,Junior/Senior,17,110,Corcoran,SBD,102.06,70.31,142.88,315.25,Single-ply,7
Brock Mueller,M,Junior/Senior,17,125,Liberty,SBD,210.92,122.47,231.33,564.72,Single-ply,1
Mike Noonchester,M,Junior/Senior,17,125,Liberty,SBD,210.92,115.67,210.92,537.51,Single-ply,2
Manuel Canez,M,Junior/Senior,17,125,East,SBD,158.76,129.27,183.7,471.74,Single-ply,3
Avelino Larios,M,Junior/Senior,17,125,West,SBD,174.63,102.06,188.24,464.93,Single-ply,4
Eric Martinez,M,Junior/Senior,17,125,Stockdale,SBD,151.95,120.2,190.51,462.66,Single-ply,5
Ralph Franco,M,Junior/Senior,17,125,West,SB,206.38,102.06,,308.44,Single-ply,6
Soon-Jo Hong,M,Junior/Senior,17,125,Stockdale,SB,183.7,102.06,,285.76,Single-ply,7
Daniel Herrera,M,Junior/Senior,17,125,East,SB,142.88,127.01,,269.89,Single-ply,8
Tyler Ward,M,Junior/Senior,17,125+,Liberty,SBD,213.19,113.4,204.12,530.7,Single-ply,1
Dan Lusich,M,Junior/Senior,17,125+,Liberty,SBD,156.49,106.59,174.63,437.72,Single-ply,2
Mike Muro,M,Junior/Senior,17,125+,South,SBD,142.88,108.86,158.76,410.5,Single-ply,3
Jacob Hernandez,M,Junior/Senior,17,125+,West,SBD,147.42,102.06,156.49,405.97,Single-ply,4
Adam Pino,M,Junior/Senior,17,125+,Liberty,BD,,120.2,224.53,344.73,Single-ply,5
Alan Prince,M,Junior/Senior,17,125+,Stockdale,BD,,124.74,188.24,312.98,Single-ply,6
Brandon Bailey,M,Junior/Senior,17,125+,West,BD,,106.59,183.7,290.3,Single-ply,7
