﻿BDFPF BK. CHAMP BEL SQUAT EQ 2013
BK. SQUAT EQUIPPED 2013
                                                   W.Class                                                                   1é     2é       3é     4     points
1                                   1              - 80 KG Dechamps     Nadege      V   Castors            17   T2   79,6    175    192,5    200          138,22
1                                   1              52 KG De Lauw        Luc         M   Plannet Fitness    48   M2   51,6    90     100      110          105,61
2                                   1              52 KG Devos          Lorenzo         M     Body 2 Fit   16   T2   52,0    55     60       -75          57,09
1                                   1              60 KG Devos          Gillian         M    Zwevegem      14   T1   57,6    72,5   75       80           67,872
1                                   1              67,5 KG Vanhee       Emmerik     M   Isogym             23   JR   67,4    130    140      145          105,39
2                                   1              67,5 KG Devos        Kurt            M    Zwevegem      42   M1   64,8    90     -100     105          79,118
1                                   1              75 KG Tirth          Ram         M   Isogym             40   M1   73,8    200    -212,5   215    223   144,7
2                                   2              75 KG Hallewaert     Bart        M   Isogym             44   M1   74,9    205    -225     -225         136,37
3                                   1              75 KG Jacmart        Jeremy      M   Castors            22   JR   74,7    185    195      -210         129,99
1                                   1              82,5 KG Sudarminto   Indra       M   Planet Fitness     22   JR   77,4    275    292,5    300          194,58
2                                   1              82,5 KG Remy         Roger       M   Castors            60   M5   77,7                                 135,81
3                                   2              82,5 KG Soenens      Gillis      M   Isogym             23   JR   81,1    180    190      200          125,36
1                                   1              90 KG Peeters        Alan        M   Gilberts Gym       19   T3   85,5    230    250      270          163,22
2                                   1              90 KG Verbeke        Beny        M   Isogym             48   M2   86,9    220    240      255          152,54
3                                   1              90 KG Theyssens      Martin      M   Patton Team        74   M7   85,5    110    120      -125         72,54
1                                   1              100 KG Vermandere    Thomas      M   Isogym             23   JR   92,5    185    192,5    200          115,22
1                                   1              110 KG Vermote       Gianni      M   Isogym             41   M1   105,1   265    282,5    290    300   157,64
1                                   1              145 KG Dechamps      Sebastien   M   Castors            20   JR   131,7   330    340      350          179,55
2                                   1              145 KG Dechamps      Jerome      M   Castors            25   SR   133,2   320    340      350          178,92
Nat Record                          World Record
European Record                     Best Lifter    Drugtested
08 Dec 2013, Florennes
