Place,Name,Country,BodyweightKg,Squat1Kg,Squat2Kg,Squat3Kg,Best3SquatKg,Bench1Kg,Bench2Kg,Bench3Kg,Best3BenchKg,Deadlift1Kg,Deadlift2Kg,Deadlift3Kg,Best3DeadliftKg,TotalKg,WeightClassKg,Sex,Event,Equipment,Division
1,Magdalena Pitek,Poland,45.3,70,-80,90,90,37.5,42.5,45,45,90,92.5,100,100,235,48,F,SBD,Single-ply,Seniorki
2,Maria Szymanowska,Poland,43,80,-90,-90,80,40,42.5,-45,42.5,100,-105,-105,100,222.5,48,F,SBD,Single-ply,Seniorki
3,Ewa Mioduszewska,Poland,46.2,72.5,82.5,-85,82.5,30,35,37.5,37.5,80,90,102.5,102.5,222.5,48,F,SBD,Single-ply,Seniorki
1,Klaudia Rusztyn,Poland,51.9,70,-80,80,80,32.5,37.5,40,40,-95,100,115,115,235,52,F,SBD,Single-ply,Seniorki
DQ,Patrycja Jurga,Poland,51.5,-135,-140,-140,,60,65,-70,65,140,150,-153.5,150,,52,F,SBD,Single-ply,Seniorki
1,Katarzyna Sysa,Poland,53.5,-145,145,160,160,65,-70,70,70,115,122.5,-127.5,122.5,352.5,56,F,SBD,Single-ply,Seniorki
1,Agnieszka Ziółkowska,Poland,57.1,160,-170,-170,160,67.5,72.5,77.5,77.5,170,177.5,-185,177.5,415,60,F,SBD,Single-ply,Seniorki
2,Katarzyna Pluta,Poland,57.9,110,120,-130,120,32.5,45,50,50,110,120,125,125,295,60,F,SBD,Single-ply,Seniorki
3,Magdalena Błach,Poland,58.2,100,102.5,112.5,112.5,55,60,65,65,100,105,110,110,287.5,60,F,SBD,Single-ply,Seniorki
G,Stanislawa Gal,Poland,59.4,-140,-140,-140,,60,-65,-65,60,160,168,-170,168,228,60,F,SBD,Single-ply,Seniorki
1,Maria Szymkowiak,Poland,63.5,140,147.5,-155,147.5,75,80,85,85,140,150,-155,150,382.5,67.5,F,SBD,Single-ply,Seniorki
DQ,Anna Slusarczyk,Poland,67.4,95,105,110,110,45,-50,-50,45,105,-125,-125,105,,67.5,F,SBD,Single-ply,Seniorki
1,Magdalena Jablonska,Poland,67.6,190,200,212.5,212.5,80,87.5,92.5,92.5,160,170,177.5,177.5,482.5,75,F,SBD,Single-ply,Seniorki
2,Agata Sedziak,Poland,69,140,-150,150,150,72.5,80,-82.5,80,135,140,-142.5,140,370,75,F,SBD,Single-ply,Seniorki
1,Dariusz Wszoła,Poland,55.9,230,,,230,155,162.5,170,170,195,205,210,210,610,56,M,SBD,Single-ply,Seniorzy
2,Jakub Synak,Poland,55.8,180,190,-200,190,-117.5,-117.5,117.5,117.5,170,180,185,185,492.5,56,M,SBD,Single-ply,Seniorzy
3,Piotr Markiewicz,Poland,56,160,170,180,180,-100,-100,100,100,190,205,-210,205,485,56,M,SBD,Single-ply,Seniorzy
4,Piotr Dobrzynski,Poland,55.9,140,160,175,175,80,-90,90,90,150,160,-167.5,160,425,56,M,SBD,Single-ply,Seniorzy
5,Dawid Szura,Poland,55.9,-130,130,-140,130,75,82.5,-90,82.5,155,165,177.5,177.5,390,56,M,SBD,Single-ply,Seniorzy
1,Paweł Ośmiałowski,Poland,59.4,240,252.5,261,261,130,140,147.5,147.5,210,220,222.5,222.5,631,60,M,SBD,Single-ply,Seniorzy
2,Bartlomiej Polecki,Poland,59.7,200,-210,-210,200,125,135,-137.5,135,195,205,-210,205,540,60,M,SBD,Single-ply,Seniorzy
3,Dariusz Janik,Poland,59.4,-190,190,,190,115,-120,-120,115,180,190,-195,190,495,60,M,SBD,Single-ply,Seniorzy
DQ,Robert Tracz,Poland,58.7,150,160,,160,-130,-130,-130,,,,,,,60,M,SBD,Single-ply,Seniorzy
1,Artur Giczan,Poland,67.5,240,260,280,280,130,145,152.5,152.5,230,250,-267.5,250,682.5,67.5,M,SBD,Single-ply,Seniorzy
2,Dominik Golak,Poland,61.5,190,210,225,225,115,125,130,130,205,215,217.5,217.5,572.5,67.5,M,SBD,Single-ply,Seniorzy
3,Piotr Gatecki,Poland,66.7,210,-215,-215,210,100,125,-130,125,222.5,-227.5,235,235,570,67.5,M,SBD,Single-ply,Seniorzy
4,Grzegorz Uziełło,Poland,66.6,200,210,-215,210,125,130,132.5,132.5,225,-230,-230,225,567.5,67.5,M,SBD,Single-ply,Seniorzy
5,Andrzej Kropiwnicki,Poland,63.5,190,-205,-205,190,102.5,110,-115,110,190,200,-207.5,200,500,67.5,M,SBD,Single-ply,Seniorzy
6,Wojciech Kepczynski,Poland,67.5,180,190,-195,190,,-95,95,95,165,175,-180,175,460,67.5,M,SBD,Single-ply,Seniorzy
1,Jarosław Olech,Poland,73.7,300,,,300,180,205,,205,260,,,260,765,75,M,SBD,Single-ply,Seniorzy
2,Szymon Synak,Poland,74.3,240,250,260,260,-170,-170,170,170,225,-235,-235,225,655,75,M,SBD,Single-ply,Seniorzy
3,Jaroslaw Radziejowski,Poland,69.9,245,255,265,265,135,145,-150,145,230,-240,-240,230,640,75,M,SBD,Single-ply,Seniorzy
4,Adam Rozek,Poland,74.2,245,255,260,260,115,120,125,125,205,-215,-215,205,590,75,M,SBD,Single-ply,Seniorzy
5,Mikołaj Kwiatkowski,Poland,74.2,190,205,-220,205,125,135,-142.5,135,-200,200,,200,540,75,M,SBD,Single-ply,Seniorzy
DQ,Damian Cieleban,Poland,74.6,-280,-280,-280,,,,,,,,,,,75,M,SBD,Single-ply,Seniorzy
DQ,Piotr Jakimiuk,Poland,74.3,250,-270,-270,250,-170,-170,-170,,,,,,,75,M,SBD,Single-ply,Seniorzy
1,Jacek Spychała,Poland,82.1,300,320,332.5,332.5,-195,200,210,210,290,310,-330,310,852.5,82.5,M,SBD,Single-ply,Seniorzy
2,Tomasz Jarosiewicz,Poland,81,300,315,-325,315,195,205,212.5,212.5,255,265,-277.5,265,792.5,82.5,M,SBD,Single-ply,Seniorzy
3,Arkadiusz Kaminski,Poland,81.4,290,-305,310,310,170,177.5,-182.5,177.5,275,-287.5,287.5,287.5,775,82.5,M,SBD,Single-ply,Seniorzy
4,Adam Citko,Poland,81.1,-285,285,300,300,175,187.5,192.5,192.5,280,-300,-300,280,772.5,82.5,M,SBD,Single-ply,Seniorzy
5,Maciej Bielski,Poland,82.5,300,-312.5,312.5,312.5,160,-170,170,170,265,272.5,-282.5,272.5,755,82.5,M,SBD,Single-ply,Seniorzy
6,Filip Czelusniak,Poland,81.6,250,260,-270,260,150,157.5,165,165,250,260,-265,260,685,82.5,M,SBD,Single-ply,Seniorzy
7,Łukasz Grzesiuk,Poland,82,220,-240,-240,220,165,175,-180,175,270,-290,-290,270,665,82.5,M,SBD,Single-ply,Seniorzy
8,Rafal Oracz,Poland,79.6,200,212.5,215,215,120,130,-135,130,200,212.5,-217.5,212.5,557.5,82.5,M,SBD,Single-ply,Seniorzy
DQ,Daniel Miller,Poland,81.8,340,356,-360,356,210,-220,220,220,-290,-290,-290,,,82.5,M,SBD,Single-ply,Seniorzy
DQ,Janusz Tutodziecki,Poland,80.6,-200,-200,-200,,-170,170,-175,170,210,-212.5,-215,210,,82.5,M,SBD,Single-ply,Seniorzy
1,Bartłomiej Szymkowiak,Poland,87,-330,330,345,345,170,177.5,182.5,182.5,290,-300,-300,290,817.5,90,M,SBD,Single-ply,Seniorzy
2,Andrzej Milanowski,Poland,87.6,300,-320,320,320,175,187.5,-195,187.5,280,290,-312.5,290,797.5,90,M,SBD,Single-ply,Seniorzy
3,Bartłomiej Zaik,Poland,89,-300,-300,300,300,200,-210,210,210,260,275,-290,275,785,90,M,SBD,Single-ply,Seniorzy
DQ,Krzysztof Golab,Poland,86.5,-175,-190,-190,,90,95,-105,95,205,215,-222.5,215,,90,M,SBD,Single-ply,Seniorzy
DQ,Hubert Witak,Poland,88.8,-180,190,205,205,-190,-190,-190,,,,,,,90,M,SBD,Single-ply,Seniorzy
DQ,Paweł Podmagórski,Poland,89.8,-270,-280,-280,,190,-200,-200,190,270,300,-305,300,,90,M,SBD,Single-ply,Seniorzy
1,Grzegorz Skowroński,Poland,99.8,320,340,-360,340,215,225,230,230,300,315,330,330,900,100,M,SBD,Single-ply,Seniorzy
2,Lukasz Wiak,Poland,98.8,-300,305,320,320,190,205,215,215,285,-300,300,300,835,100,M,SBD,Single-ply,Seniorzy
3,Radoslaw Grzechnik,Poland,98.6,310,-320,-320,310,-200,205,-212.5,205,270,-285,-285,270,785,100,M,SBD,Single-ply,Seniorzy
4,Andrzej Bieganski,Poland,95.3,280,-295,295,295,140,-147.5,147.5,147.5,280,295,-305,295,737.5,100,M,SBD,Single-ply,Seniorzy
5,Marcin Kuklis,Poland,97,210,220,,220,145,147.5,,147.5,220,240,-250,240,607.5,100,M,SBD,Single-ply,Seniorzy
DQ,Sebastian Kot,Poland,97.8,-300,300,-310,300,50,,,50,,,,,,100,M,SBD,Single-ply,Seniorzy
DQ,Maciej Sochacki,Poland,91.9,300,-310,310,310,-210,-210,-210,,,,,,,100,M,SBD,Single-ply,Seniorzy
1,Tomasz Zakrzewski,Poland,108.1,-310,310,-330,310,-266,-266,266,266,300,310,-330,310,886,110,M,SBD,Single-ply,Seniorzy
2,Mariusz Snarski,Poland,100.1,300,-320,320,320,200,220,,220,250,270,280,280,820,110,M,SBD,Single-ply,Seniorzy
3,Tomasz Kowalski,Poland,102.6,250,-260,-260,250,-190,-190,190,190,260,270,280,280,720,110,M,SBD,Single-ply,Seniorzy
DQ,Krystian Lipiński,Poland,100.9,220,235,250,250,-210,-215,-215,,220,235,250,250,,110,M,SBD,Single-ply,Seniorzy
DQ,Robert Siciarek,Poland,108.4,,,,,,,,,,,,,,110,M,SBD,Single-ply,Seniorzy
1,Sławomir Ceglarek,Poland,112.1,330,345,-360,345,230,-240,-240,230,300,312.5,325,325,900,125,M,SBD,Single-ply,Seniorzy
2,Konrad Bronicki,Poland,120.6,360,-375,-375,360,220,230,-235,230,220,240,250,250,840,125,M,SBD,Single-ply,Seniorzy
3,Miłosz Pytawski,Poland,119.1,300,325,-350,325,-170,170,-190,170,300,-315,,300,795,125,M,SBD,Single-ply,Seniorzy
DQ,Daniel Walczak,Poland,116.1,290,305,-315,305,-240,-240,-240,,-300,-300,-300,,,125,M,SBD,Single-ply,Seniorzy
DQ,Paweł Jabłoński,Poland,114.2,285,295,310,310,-202.5,-202.5,-202.5,,200,230,280,280,,125,M,SBD,Single-ply,Seniorzy
1,Daniel Grabowski,Poland,135.4,390,-420,-430,390,260,280,290,290,-320,320,-345,320,1000,125+,M,SBD,Single-ply,Seniorzy
2,Rafał Lipka,Poland,125.1,260,280,,280,180,-195,195,195,270,290,300,300,775,125+,M,SBD,Single-ply,Seniorzy
3,Andrzej Swierszcz,Poland,129.7,230,-245,245,245,-245,250,260,260,250,262.5,270,270,775,125+,M,SBD,Single-ply,Seniorzy
4,Emił Dzik,Poland,160.2,-275,275,-285,275,212.5,217.5,-227.5,217.5,250,-265,-265,250,742.5,125+,M,SBD,Single-ply,Seniorzy
5,Jakub Wojtowicz,Poland,125.4,290,-310,320,320,-180,-180,180,180,220,235,-240,235,735,125+,M,SBD,Single-ply,Seniorzy
DQ,Piotr Jabłonski,Poland,129.6,-310,-320,-320,,-195,-195,-200,,-310,310,330,330,,125+,M,SBD,Single-ply,Seniorzy
